('/home/luis/anaconda3/envs/hackspace/lib/tcl8.6',
 'tcl',
 ['demos', '*.lib', 'tclConfig.sh'],
 'DATA',
 [('tcl/clock.tcl',
   '/home/luis/anaconda3/envs/hackspace/lib/tcl8.6/clock.tcl',
   'DATA'),
  ('tcl/tm.tcl',
   '/home/luis/anaconda3/envs/hackspace/lib/tcl8.6/tm.tcl',
   'DATA'),
  ('tcl/history.tcl',
   '/home/luis/anaconda3/envs/hackspace/lib/tcl8.6/history.tcl',
   'DATA'),
  ('tcl/package.tcl',
   '/home/luis/anaconda3/envs/hackspace/lib/tcl8.6/package.tcl',
   'DATA'),
  ('tcl/parray.tcl',
   '/home/luis/anaconda3/envs/hackspace/lib/tcl8.6/parray.tcl',
   'DATA'),
  ('tcl/safe.tcl',
   '/home/luis/anaconda3/envs/hackspace/lib/tcl8.6/safe.tcl',
   'DATA'),
  ('tcl/tclIndex',
   '/home/luis/anaconda3/envs/hackspace/lib/tcl8.6/tclIndex',
   'DATA'),
  ('tcl/auto.tcl',
   '/home/luis/anaconda3/envs/hackspace/lib/tcl8.6/auto.tcl',
   'DATA'),
  ('tcl/tclAppInit.c',
   '/home/luis/anaconda3/envs/hackspace/lib/tcl8.6/tclAppInit.c',
   'DATA'),
  ('tcl/word.tcl',
   '/home/luis/anaconda3/envs/hackspace/lib/tcl8.6/word.tcl',
   'DATA'),
  ('tcl/init.tcl',
   '/home/luis/anaconda3/envs/hackspace/lib/tcl8.6/init.tcl',
   'DATA'),
  ('tcl/msgs/es_pa.msg',
   '/home/luis/anaconda3/envs/hackspace/lib/tcl8.6/msgs/es_pa.msg',
   'DATA'),
  ('tcl/msgs/hu.msg',
   '/home/luis/anaconda3/envs/hackspace/lib/tcl8.6/msgs/hu.msg',
   'DATA'),
  ('tcl/msgs/en_ca.msg',
   '/home/luis/anaconda3/envs/hackspace/lib/tcl8.6/msgs/en_ca.msg',
   'DATA'),
  ('tcl/msgs/th.msg',
   '/home/luis/anaconda3/envs/hackspace/lib/tcl8.6/msgs/th.msg',
   'DATA'),
  ('tcl/msgs/en_za.msg',
   '/home/luis/anaconda3/envs/hackspace/lib/tcl8.6/msgs/en_za.msg',
   'DATA'),
  ('tcl/msgs/id.msg',
   '/home/luis/anaconda3/envs/hackspace/lib/tcl8.6/msgs/id.msg',
   'DATA'),
  ('tcl/msgs/en_bw.msg',
   '/home/luis/anaconda3/envs/hackspace/lib/tcl8.6/msgs/en_bw.msg',
   'DATA'),
  ('tcl/msgs/fa.msg',
   '/home/luis/anaconda3/envs/hackspace/lib/tcl8.6/msgs/fa.msg',
   'DATA'),
  ('tcl/msgs/en_zw.msg',
   '/home/luis/anaconda3/envs/hackspace/lib/tcl8.6/msgs/en_zw.msg',
   'DATA'),
  ('tcl/msgs/gv.msg',
   '/home/luis/anaconda3/envs/hackspace/lib/tcl8.6/msgs/gv.msg',
   'DATA'),
  ('tcl/msgs/ru_ua.msg',
   '/home/luis/anaconda3/envs/hackspace/lib/tcl8.6/msgs/ru_ua.msg',
   'DATA'),
  ('tcl/msgs/kw_gb.msg',
   '/home/luis/anaconda3/envs/hackspace/lib/tcl8.6/msgs/kw_gb.msg',
   'DATA'),
  ('tcl/msgs/ar_in.msg',
   '/home/luis/anaconda3/envs/hackspace/lib/tcl8.6/msgs/ar_in.msg',
   'DATA'),
  ('tcl/msgs/zh_cn.msg',
   '/home/luis/anaconda3/envs/hackspace/lib/tcl8.6/msgs/zh_cn.msg',
   'DATA'),
  ('tcl/msgs/tr.msg',
   '/home/luis/anaconda3/envs/hackspace/lib/tcl8.6/msgs/tr.msg',
   'DATA'),
  ('tcl/msgs/es_bo.msg',
   '/home/luis/anaconda3/envs/hackspace/lib/tcl8.6/msgs/es_bo.msg',
   'DATA'),
  ('tcl/msgs/en_hk.msg',
   '/home/luis/anaconda3/envs/hackspace/lib/tcl8.6/msgs/en_hk.msg',
   'DATA'),
  ('tcl/msgs/ca.msg',
   '/home/luis/anaconda3/envs/hackspace/lib/tcl8.6/msgs/ca.msg',
   'DATA'),
  ('tcl/msgs/es_do.msg',
   '/home/luis/anaconda3/envs/hackspace/lib/tcl8.6/msgs/es_do.msg',
   'DATA'),
  ('tcl/msgs/mr_in.msg',
   '/home/luis/anaconda3/envs/hackspace/lib/tcl8.6/msgs/mr_in.msg',
   'DATA'),
  ('tcl/msgs/en_nz.msg',
   '/home/luis/anaconda3/envs/hackspace/lib/tcl8.6/msgs/en_nz.msg',
   'DATA'),
  ('tcl/msgs/es_cr.msg',
   '/home/luis/anaconda3/envs/hackspace/lib/tcl8.6/msgs/es_cr.msg',
   'DATA'),
  ('tcl/msgs/bn_in.msg',
   '/home/luis/anaconda3/envs/hackspace/lib/tcl8.6/msgs/bn_in.msg',
   'DATA'),
  ('tcl/msgs/en_sg.msg',
   '/home/luis/anaconda3/envs/hackspace/lib/tcl8.6/msgs/en_sg.msg',
   'DATA'),
  ('tcl/msgs/en_in.msg',
   '/home/luis/anaconda3/envs/hackspace/lib/tcl8.6/msgs/en_in.msg',
   'DATA'),
  ('tcl/msgs/es_uy.msg',
   '/home/luis/anaconda3/envs/hackspace/lib/tcl8.6/msgs/es_uy.msg',
   'DATA'),
  ('tcl/msgs/id_id.msg',
   '/home/luis/anaconda3/envs/hackspace/lib/tcl8.6/msgs/id_id.msg',
   'DATA'),
  ('tcl/msgs/be.msg',
   '/home/luis/anaconda3/envs/hackspace/lib/tcl8.6/msgs/be.msg',
   'DATA'),
  ('tcl/msgs/pt.msg',
   '/home/luis/anaconda3/envs/hackspace/lib/tcl8.6/msgs/pt.msg',
   'DATA'),
  ('tcl/msgs/pt_br.msg',
   '/home/luis/anaconda3/envs/hackspace/lib/tcl8.6/msgs/pt_br.msg',
   'DATA'),
  ('tcl/msgs/nl_be.msg',
   '/home/luis/anaconda3/envs/hackspace/lib/tcl8.6/msgs/nl_be.msg',
   'DATA'),
  ('tcl/msgs/gl_es.msg',
   '/home/luis/anaconda3/envs/hackspace/lib/tcl8.6/msgs/gl_es.msg',
   'DATA'),
  ('tcl/msgs/it_ch.msg',
   '/home/luis/anaconda3/envs/hackspace/lib/tcl8.6/msgs/it_ch.msg',
   'DATA'),
  ('tcl/msgs/fa_in.msg',
   '/home/luis/anaconda3/envs/hackspace/lib/tcl8.6/msgs/fa_in.msg',
   'DATA'),
  ('tcl/msgs/hr.msg',
   '/home/luis/anaconda3/envs/hackspace/lib/tcl8.6/msgs/hr.msg',
   'DATA'),
  ('tcl/msgs/nn.msg',
   '/home/luis/anaconda3/envs/hackspace/lib/tcl8.6/msgs/nn.msg',
   'DATA'),
  ('tcl/msgs/en_be.msg',
   '/home/luis/anaconda3/envs/hackspace/lib/tcl8.6/msgs/en_be.msg',
   'DATA'),
  ('tcl/msgs/eo.msg',
   '/home/luis/anaconda3/envs/hackspace/lib/tcl8.6/msgs/eo.msg',
   'DATA'),
  ('tcl/msgs/lv.msg',
   '/home/luis/anaconda3/envs/hackspace/lib/tcl8.6/msgs/lv.msg',
   'DATA'),
  ('tcl/msgs/es_sv.msg',
   '/home/luis/anaconda3/envs/hackspace/lib/tcl8.6/msgs/es_sv.msg',
   'DATA'),
  ('tcl/msgs/en_ie.msg',
   '/home/luis/anaconda3/envs/hackspace/lib/tcl8.6/msgs/en_ie.msg',
   'DATA'),
  ('tcl/msgs/es_ve.msg',
   '/home/luis/anaconda3/envs/hackspace/lib/tcl8.6/msgs/es_ve.msg',
   'DATA'),
  ('tcl/msgs/sr.msg',
   '/home/luis/anaconda3/envs/hackspace/lib/tcl8.6/msgs/sr.msg',
   'DATA'),
  ('tcl/msgs/es_pe.msg',
   '/home/luis/anaconda3/envs/hackspace/lib/tcl8.6/msgs/es_pe.msg',
   'DATA'),
  ('tcl/msgs/fi.msg',
   '/home/luis/anaconda3/envs/hackspace/lib/tcl8.6/msgs/fi.msg',
   'DATA'),
  ('tcl/msgs/vi.msg',
   '/home/luis/anaconda3/envs/hackspace/lib/tcl8.6/msgs/vi.msg',
   'DATA'),
  ('tcl/msgs/kw.msg',
   '/home/luis/anaconda3/envs/hackspace/lib/tcl8.6/msgs/kw.msg',
   'DATA'),
  ('tcl/msgs/sk.msg',
   '/home/luis/anaconda3/envs/hackspace/lib/tcl8.6/msgs/sk.msg',
   'DATA'),
  ('tcl/msgs/te_in.msg',
   '/home/luis/anaconda3/envs/hackspace/lib/tcl8.6/msgs/te_in.msg',
   'DATA'),
  ('tcl/msgs/sq.msg',
   '/home/luis/anaconda3/envs/hackspace/lib/tcl8.6/msgs/sq.msg',
   'DATA'),
  ('tcl/msgs/it.msg',
   '/home/luis/anaconda3/envs/hackspace/lib/tcl8.6/msgs/it.msg',
   'DATA'),
  ('tcl/msgs/zh_tw.msg',
   '/home/luis/anaconda3/envs/hackspace/lib/tcl8.6/msgs/zh_tw.msg',
   'DATA'),
  ('tcl/msgs/en_au.msg',
   '/home/luis/anaconda3/envs/hackspace/lib/tcl8.6/msgs/en_au.msg',
   'DATA'),
  ('tcl/msgs/es_pr.msg',
   '/home/luis/anaconda3/envs/hackspace/lib/tcl8.6/msgs/es_pr.msg',
   'DATA'),
  ('tcl/msgs/de_be.msg',
   '/home/luis/anaconda3/envs/hackspace/lib/tcl8.6/msgs/de_be.msg',
   'DATA'),
  ('tcl/msgs/uk.msg',
   '/home/luis/anaconda3/envs/hackspace/lib/tcl8.6/msgs/uk.msg',
   'DATA'),
  ('tcl/msgs/gv_gb.msg',
   '/home/luis/anaconda3/envs/hackspace/lib/tcl8.6/msgs/gv_gb.msg',
   'DATA'),
  ('tcl/msgs/ar.msg',
   '/home/luis/anaconda3/envs/hackspace/lib/tcl8.6/msgs/ar.msg',
   'DATA'),
  ('tcl/msgs/es_ar.msg',
   '/home/luis/anaconda3/envs/hackspace/lib/tcl8.6/msgs/es_ar.msg',
   'DATA'),
  ('tcl/msgs/kok_in.msg',
   '/home/luis/anaconda3/envs/hackspace/lib/tcl8.6/msgs/kok_in.msg',
   'DATA'),
  ('tcl/msgs/el.msg',
   '/home/luis/anaconda3/envs/hackspace/lib/tcl8.6/msgs/el.msg',
   'DATA'),
  ('tcl/msgs/de.msg',
   '/home/luis/anaconda3/envs/hackspace/lib/tcl8.6/msgs/de.msg',
   'DATA'),
  ('tcl/msgs/ta_in.msg',
   '/home/luis/anaconda3/envs/hackspace/lib/tcl8.6/msgs/ta_in.msg',
   'DATA'),
  ('tcl/msgs/es_gt.msg',
   '/home/luis/anaconda3/envs/hackspace/lib/tcl8.6/msgs/es_gt.msg',
   'DATA'),
  ('tcl/msgs/fr_be.msg',
   '/home/luis/anaconda3/envs/hackspace/lib/tcl8.6/msgs/fr_be.msg',
   'DATA'),
  ('tcl/msgs/sw.msg',
   '/home/luis/anaconda3/envs/hackspace/lib/tcl8.6/msgs/sw.msg',
   'DATA'),
  ('tcl/msgs/lt.msg',
   '/home/luis/anaconda3/envs/hackspace/lib/tcl8.6/msgs/lt.msg',
   'DATA'),
  ('tcl/msgs/es_mx.msg',
   '/home/luis/anaconda3/envs/hackspace/lib/tcl8.6/msgs/es_mx.msg',
   'DATA'),
  ('tcl/msgs/fa_ir.msg',
   '/home/luis/anaconda3/envs/hackspace/lib/tcl8.6/msgs/fa_ir.msg',
   'DATA'),
  ('tcl/msgs/mt.msg',
   '/home/luis/anaconda3/envs/hackspace/lib/tcl8.6/msgs/mt.msg',
   'DATA'),
  ('tcl/msgs/sl.msg',
   '/home/luis/anaconda3/envs/hackspace/lib/tcl8.6/msgs/sl.msg',
   'DATA'),
  ('tcl/msgs/fr_ca.msg',
   '/home/luis/anaconda3/envs/hackspace/lib/tcl8.6/msgs/fr_ca.msg',
   'DATA'),
  ('tcl/msgs/eu.msg',
   '/home/luis/anaconda3/envs/hackspace/lib/tcl8.6/msgs/eu.msg',
   'DATA'),
  ('tcl/msgs/fr_ch.msg',
   '/home/luis/anaconda3/envs/hackspace/lib/tcl8.6/msgs/fr_ch.msg',
   'DATA'),
  ('tcl/msgs/bg.msg',
   '/home/luis/anaconda3/envs/hackspace/lib/tcl8.6/msgs/bg.msg',
   'DATA'),
  ('tcl/msgs/ar_sy.msg',
   '/home/luis/anaconda3/envs/hackspace/lib/tcl8.6/msgs/ar_sy.msg',
   'DATA'),
  ('tcl/msgs/es_py.msg',
   '/home/luis/anaconda3/envs/hackspace/lib/tcl8.6/msgs/es_py.msg',
   'DATA'),
  ('tcl/msgs/zh.msg',
   '/home/luis/anaconda3/envs/hackspace/lib/tcl8.6/msgs/zh.msg',
   'DATA'),
  ('tcl/msgs/es.msg',
   '/home/luis/anaconda3/envs/hackspace/lib/tcl8.6/msgs/es.msg',
   'DATA'),
  ('tcl/msgs/cs.msg',
   '/home/luis/anaconda3/envs/hackspace/lib/tcl8.6/msgs/cs.msg',
   'DATA'),
  ('tcl/msgs/te.msg',
   '/home/luis/anaconda3/envs/hackspace/lib/tcl8.6/msgs/te.msg',
   'DATA'),
  ('tcl/msgs/bn.msg',
   '/home/luis/anaconda3/envs/hackspace/lib/tcl8.6/msgs/bn.msg',
   'DATA'),
  ('tcl/msgs/es_co.msg',
   '/home/luis/anaconda3/envs/hackspace/lib/tcl8.6/msgs/es_co.msg',
   'DATA'),
  ('tcl/msgs/kl_gl.msg',
   '/home/luis/anaconda3/envs/hackspace/lib/tcl8.6/msgs/kl_gl.msg',
   'DATA'),
  ('tcl/msgs/af_za.msg',
   '/home/luis/anaconda3/envs/hackspace/lib/tcl8.6/msgs/af_za.msg',
   'DATA'),
  ('tcl/msgs/da.msg',
   '/home/luis/anaconda3/envs/hackspace/lib/tcl8.6/msgs/da.msg',
   'DATA'),
  ('tcl/msgs/eu_es.msg',
   '/home/luis/anaconda3/envs/hackspace/lib/tcl8.6/msgs/eu_es.msg',
   'DATA'),
  ('tcl/msgs/ro.msg',
   '/home/luis/anaconda3/envs/hackspace/lib/tcl8.6/msgs/ro.msg',
   'DATA'),
  ('tcl/msgs/de_at.msg',
   '/home/luis/anaconda3/envs/hackspace/lib/tcl8.6/msgs/de_at.msg',
   'DATA'),
  ('tcl/msgs/ko_kr.msg',
   '/home/luis/anaconda3/envs/hackspace/lib/tcl8.6/msgs/ko_kr.msg',
   'DATA'),
  ('tcl/msgs/en_ph.msg',
   '/home/luis/anaconda3/envs/hackspace/lib/tcl8.6/msgs/en_ph.msg',
   'DATA'),
  ('tcl/msgs/ar_jo.msg',
   '/home/luis/anaconda3/envs/hackspace/lib/tcl8.6/msgs/ar_jo.msg',
   'DATA'),
  ('tcl/msgs/es_cl.msg',
   '/home/luis/anaconda3/envs/hackspace/lib/tcl8.6/msgs/es_cl.msg',
   'DATA'),
  ('tcl/msgs/kl.msg',
   '/home/luis/anaconda3/envs/hackspace/lib/tcl8.6/msgs/kl.msg',
   'DATA'),
  ('tcl/msgs/ga_ie.msg',
   '/home/luis/anaconda3/envs/hackspace/lib/tcl8.6/msgs/ga_ie.msg',
   'DATA'),
  ('tcl/msgs/nb.msg',
   '/home/luis/anaconda3/envs/hackspace/lib/tcl8.6/msgs/nb.msg',
   'DATA'),
  ('tcl/msgs/mr.msg',
   '/home/luis/anaconda3/envs/hackspace/lib/tcl8.6/msgs/mr.msg',
   'DATA'),
  ('tcl/msgs/sv.msg',
   '/home/luis/anaconda3/envs/hackspace/lib/tcl8.6/msgs/sv.msg',
   'DATA'),
  ('tcl/msgs/sh.msg',
   '/home/luis/anaconda3/envs/hackspace/lib/tcl8.6/msgs/sh.msg',
   'DATA'),
  ('tcl/msgs/gl.msg',
   '/home/luis/anaconda3/envs/hackspace/lib/tcl8.6/msgs/gl.msg',
   'DATA'),
  ('tcl/msgs/pl.msg',
   '/home/luis/anaconda3/envs/hackspace/lib/tcl8.6/msgs/pl.msg',
   'DATA'),
  ('tcl/msgs/ga.msg',
   '/home/luis/anaconda3/envs/hackspace/lib/tcl8.6/msgs/ga.msg',
   'DATA'),
  ('tcl/msgs/fo.msg',
   '/home/luis/anaconda3/envs/hackspace/lib/tcl8.6/msgs/fo.msg',
   'DATA'),
  ('tcl/msgs/et.msg',
   '/home/luis/anaconda3/envs/hackspace/lib/tcl8.6/msgs/et.msg',
   'DATA'),
  ('tcl/msgs/es_hn.msg',
   '/home/luis/anaconda3/envs/hackspace/lib/tcl8.6/msgs/es_hn.msg',
   'DATA'),
  ('tcl/msgs/zh_hk.msg',
   '/home/luis/anaconda3/envs/hackspace/lib/tcl8.6/msgs/zh_hk.msg',
   'DATA'),
  ('tcl/msgs/ms_my.msg',
   '/home/luis/anaconda3/envs/hackspace/lib/tcl8.6/msgs/ms_my.msg',
   'DATA'),
  ('tcl/msgs/ja.msg',
   '/home/luis/anaconda3/envs/hackspace/lib/tcl8.6/msgs/ja.msg',
   'DATA'),
  ('tcl/msgs/es_ni.msg',
   '/home/luis/anaconda3/envs/hackspace/lib/tcl8.6/msgs/es_ni.msg',
   'DATA'),
  ('tcl/msgs/fo_fo.msg',
   '/home/luis/anaconda3/envs/hackspace/lib/tcl8.6/msgs/fo_fo.msg',
   'DATA'),
  ('tcl/msgs/zh_sg.msg',
   '/home/luis/anaconda3/envs/hackspace/lib/tcl8.6/msgs/zh_sg.msg',
   'DATA'),
  ('tcl/msgs/is.msg',
   '/home/luis/anaconda3/envs/hackspace/lib/tcl8.6/msgs/is.msg',
   'DATA'),
  ('tcl/msgs/en_gb.msg',
   '/home/luis/anaconda3/envs/hackspace/lib/tcl8.6/msgs/en_gb.msg',
   'DATA'),
  ('tcl/msgs/mk.msg',
   '/home/luis/anaconda3/envs/hackspace/lib/tcl8.6/msgs/mk.msg',
   'DATA'),
  ('tcl/msgs/ms.msg',
   '/home/luis/anaconda3/envs/hackspace/lib/tcl8.6/msgs/ms.msg',
   'DATA'),
  ('tcl/msgs/hi.msg',
   '/home/luis/anaconda3/envs/hackspace/lib/tcl8.6/msgs/hi.msg',
   'DATA'),
  ('tcl/msgs/nl.msg',
   '/home/luis/anaconda3/envs/hackspace/lib/tcl8.6/msgs/nl.msg',
   'DATA'),
  ('tcl/msgs/es_ec.msg',
   '/home/luis/anaconda3/envs/hackspace/lib/tcl8.6/msgs/es_ec.msg',
   'DATA'),
  ('tcl/msgs/af.msg',
   '/home/luis/anaconda3/envs/hackspace/lib/tcl8.6/msgs/af.msg',
   'DATA'),
  ('tcl/msgs/ko.msg',
   '/home/luis/anaconda3/envs/hackspace/lib/tcl8.6/msgs/ko.msg',
   'DATA'),
  ('tcl/msgs/kok.msg',
   '/home/luis/anaconda3/envs/hackspace/lib/tcl8.6/msgs/kok.msg',
   'DATA'),
  ('tcl/msgs/hi_in.msg',
   '/home/luis/anaconda3/envs/hackspace/lib/tcl8.6/msgs/hi_in.msg',
   'DATA'),
  ('tcl/msgs/ta.msg',
   '/home/luis/anaconda3/envs/hackspace/lib/tcl8.6/msgs/ta.msg',
   'DATA'),
  ('tcl/msgs/fr.msg',
   '/home/luis/anaconda3/envs/hackspace/lib/tcl8.6/msgs/fr.msg',
   'DATA'),
  ('tcl/msgs/ru.msg',
   '/home/luis/anaconda3/envs/hackspace/lib/tcl8.6/msgs/ru.msg',
   'DATA'),
  ('tcl/msgs/he.msg',
   '/home/luis/anaconda3/envs/hackspace/lib/tcl8.6/msgs/he.msg',
   'DATA'),
  ('tcl/msgs/ar_lb.msg',
   '/home/luis/anaconda3/envs/hackspace/lib/tcl8.6/msgs/ar_lb.msg',
   'DATA'),
  ('tcl/opt0.4/pkgIndex.tcl',
   '/home/luis/anaconda3/envs/hackspace/lib/tcl8.6/opt0.4/pkgIndex.tcl',
   'DATA'),
  ('tcl/opt0.4/optparse.tcl',
   '/home/luis/anaconda3/envs/hackspace/lib/tcl8.6/opt0.4/optparse.tcl',
   'DATA'),
  ('tcl/http1.0/http.tcl',
   '/home/luis/anaconda3/envs/hackspace/lib/tcl8.6/http1.0/http.tcl',
   'DATA'),
  ('tcl/http1.0/pkgIndex.tcl',
   '/home/luis/anaconda3/envs/hackspace/lib/tcl8.6/http1.0/pkgIndex.tcl',
   'DATA'),
  ('tcl/encoding/cp861.enc',
   '/home/luis/anaconda3/envs/hackspace/lib/tcl8.6/encoding/cp861.enc',
   'DATA'),
  ('tcl/encoding/cp1256.enc',
   '/home/luis/anaconda3/envs/hackspace/lib/tcl8.6/encoding/cp1256.enc',
   'DATA'),
  ('tcl/encoding/cp1250.enc',
   '/home/luis/anaconda3/envs/hackspace/lib/tcl8.6/encoding/cp1250.enc',
   'DATA'),
  ('tcl/encoding/iso8859-7.enc',
   '/home/luis/anaconda3/envs/hackspace/lib/tcl8.6/encoding/iso8859-7.enc',
   'DATA'),
  ('tcl/encoding/cp852.enc',
   '/home/luis/anaconda3/envs/hackspace/lib/tcl8.6/encoding/cp852.enc',
   'DATA'),
  ('tcl/encoding/euc-cn.enc',
   '/home/luis/anaconda3/envs/hackspace/lib/tcl8.6/encoding/euc-cn.enc',
   'DATA'),
  ('tcl/encoding/iso8859-13.enc',
   '/home/luis/anaconda3/envs/hackspace/lib/tcl8.6/encoding/iso8859-13.enc',
   'DATA'),
  ('tcl/encoding/macUkraine.enc',
   '/home/luis/anaconda3/envs/hackspace/lib/tcl8.6/encoding/macUkraine.enc',
   'DATA'),
  ('tcl/encoding/cp860.enc',
   '/home/luis/anaconda3/envs/hackspace/lib/tcl8.6/encoding/cp860.enc',
   'DATA'),
  ('tcl/encoding/shiftjis.enc',
   '/home/luis/anaconda3/envs/hackspace/lib/tcl8.6/encoding/shiftjis.enc',
   'DATA'),
  ('tcl/encoding/symbol.enc',
   '/home/luis/anaconda3/envs/hackspace/lib/tcl8.6/encoding/symbol.enc',
   'DATA'),
  ('tcl/encoding/iso8859-15.enc',
   '/home/luis/anaconda3/envs/hackspace/lib/tcl8.6/encoding/iso8859-15.enc',
   'DATA'),
  ('tcl/encoding/koi8-r.enc',
   '/home/luis/anaconda3/envs/hackspace/lib/tcl8.6/encoding/koi8-r.enc',
   'DATA'),
  ('tcl/encoding/gb2312-raw.enc',
   '/home/luis/anaconda3/envs/hackspace/lib/tcl8.6/encoding/gb2312-raw.enc',
   'DATA'),
  ('tcl/encoding/cp775.enc',
   '/home/luis/anaconda3/envs/hackspace/lib/tcl8.6/encoding/cp775.enc',
   'DATA'),
  ('tcl/encoding/macCentEuro.enc',
   '/home/luis/anaconda3/envs/hackspace/lib/tcl8.6/encoding/macCentEuro.enc',
   'DATA'),
  ('tcl/encoding/cp932.enc',
   '/home/luis/anaconda3/envs/hackspace/lib/tcl8.6/encoding/cp932.enc',
   'DATA'),
  ('tcl/encoding/iso8859-2.enc',
   '/home/luis/anaconda3/envs/hackspace/lib/tcl8.6/encoding/iso8859-2.enc',
   'DATA'),
  ('tcl/encoding/iso2022.enc',
   '/home/luis/anaconda3/envs/hackspace/lib/tcl8.6/encoding/iso2022.enc',
   'DATA'),
  ('tcl/encoding/iso2022-kr.enc',
   '/home/luis/anaconda3/envs/hackspace/lib/tcl8.6/encoding/iso2022-kr.enc',
   'DATA'),
  ('tcl/encoding/macRomania.enc',
   '/home/luis/anaconda3/envs/hackspace/lib/tcl8.6/encoding/macRomania.enc',
   'DATA'),
  ('tcl/encoding/cp949.enc',
   '/home/luis/anaconda3/envs/hackspace/lib/tcl8.6/encoding/cp949.enc',
   'DATA'),
  ('tcl/encoding/iso8859-14.enc',
   '/home/luis/anaconda3/envs/hackspace/lib/tcl8.6/encoding/iso8859-14.enc',
   'DATA'),
  ('tcl/encoding/cp936.enc',
   '/home/luis/anaconda3/envs/hackspace/lib/tcl8.6/encoding/cp936.enc',
   'DATA'),
  ('tcl/encoding/cp1252.enc',
   '/home/luis/anaconda3/envs/hackspace/lib/tcl8.6/encoding/cp1252.enc',
   'DATA'),
  ('tcl/encoding/gb2312.enc',
   '/home/luis/anaconda3/envs/hackspace/lib/tcl8.6/encoding/gb2312.enc',
   'DATA'),
  ('tcl/encoding/cp865.enc',
   '/home/luis/anaconda3/envs/hackspace/lib/tcl8.6/encoding/cp865.enc',
   'DATA'),
  ('tcl/encoding/tis-620.enc',
   '/home/luis/anaconda3/envs/hackspace/lib/tcl8.6/encoding/tis-620.enc',
   'DATA'),
  ('tcl/encoding/cp874.enc',
   '/home/luis/anaconda3/envs/hackspace/lib/tcl8.6/encoding/cp874.enc',
   'DATA'),
  ('tcl/encoding/ascii.enc',
   '/home/luis/anaconda3/envs/hackspace/lib/tcl8.6/encoding/ascii.enc',
   'DATA'),
  ('tcl/encoding/iso8859-6.enc',
   '/home/luis/anaconda3/envs/hackspace/lib/tcl8.6/encoding/iso8859-6.enc',
   'DATA'),
  ('tcl/encoding/iso8859-16.enc',
   '/home/luis/anaconda3/envs/hackspace/lib/tcl8.6/encoding/iso8859-16.enc',
   'DATA'),
  ('tcl/encoding/cp1255.enc',
   '/home/luis/anaconda3/envs/hackspace/lib/tcl8.6/encoding/cp1255.enc',
   'DATA'),
  ('tcl/encoding/cp862.enc',
   '/home/luis/anaconda3/envs/hackspace/lib/tcl8.6/encoding/cp862.enc',
   'DATA'),
  ('tcl/encoding/iso8859-10.enc',
   '/home/luis/anaconda3/envs/hackspace/lib/tcl8.6/encoding/iso8859-10.enc',
   'DATA'),
  ('tcl/encoding/macTurkish.enc',
   '/home/luis/anaconda3/envs/hackspace/lib/tcl8.6/encoding/macTurkish.enc',
   'DATA'),
  ('tcl/encoding/dingbats.enc',
   '/home/luis/anaconda3/envs/hackspace/lib/tcl8.6/encoding/dingbats.enc',
   'DATA'),
  ('tcl/encoding/koi8-u.enc',
   '/home/luis/anaconda3/envs/hackspace/lib/tcl8.6/encoding/koi8-u.enc',
   'DATA'),
  ('tcl/encoding/iso8859-3.enc',
   '/home/luis/anaconda3/envs/hackspace/lib/tcl8.6/encoding/iso8859-3.enc',
   'DATA'),
  ('tcl/encoding/ksc5601.enc',
   '/home/luis/anaconda3/envs/hackspace/lib/tcl8.6/encoding/ksc5601.enc',
   'DATA'),
  ('tcl/encoding/euc-kr.enc',
   '/home/luis/anaconda3/envs/hackspace/lib/tcl8.6/encoding/euc-kr.enc',
   'DATA'),
  ('tcl/encoding/cp1251.enc',
   '/home/luis/anaconda3/envs/hackspace/lib/tcl8.6/encoding/cp1251.enc',
   'DATA'),
  ('tcl/encoding/iso2022-jp.enc',
   '/home/luis/anaconda3/envs/hackspace/lib/tcl8.6/encoding/iso2022-jp.enc',
   'DATA'),
  ('tcl/encoding/macCroatian.enc',
   '/home/luis/anaconda3/envs/hackspace/lib/tcl8.6/encoding/macCroatian.enc',
   'DATA'),
  ('tcl/encoding/cp437.enc',
   '/home/luis/anaconda3/envs/hackspace/lib/tcl8.6/encoding/cp437.enc',
   'DATA'),
  ('tcl/encoding/iso8859-8.enc',
   '/home/luis/anaconda3/envs/hackspace/lib/tcl8.6/encoding/iso8859-8.enc',
   'DATA'),
  ('tcl/encoding/iso8859-5.enc',
   '/home/luis/anaconda3/envs/hackspace/lib/tcl8.6/encoding/iso8859-5.enc',
   'DATA'),
  ('tcl/encoding/macGreek.enc',
   '/home/luis/anaconda3/envs/hackspace/lib/tcl8.6/encoding/macGreek.enc',
   'DATA'),
  ('tcl/encoding/cp1257.enc',
   '/home/luis/anaconda3/envs/hackspace/lib/tcl8.6/encoding/cp1257.enc',
   'DATA'),
  ('tcl/encoding/cp1254.enc',
   '/home/luis/anaconda3/envs/hackspace/lib/tcl8.6/encoding/cp1254.enc',
   'DATA'),
  ('tcl/encoding/macRoman.enc',
   '/home/luis/anaconda3/envs/hackspace/lib/tcl8.6/encoding/macRoman.enc',
   'DATA'),
  ('tcl/encoding/iso8859-4.enc',
   '/home/luis/anaconda3/envs/hackspace/lib/tcl8.6/encoding/iso8859-4.enc',
   'DATA'),
  ('tcl/encoding/macIceland.enc',
   '/home/luis/anaconda3/envs/hackspace/lib/tcl8.6/encoding/macIceland.enc',
   'DATA'),
  ('tcl/encoding/cp850.enc',
   '/home/luis/anaconda3/envs/hackspace/lib/tcl8.6/encoding/cp850.enc',
   'DATA'),
  ('tcl/encoding/cp866.enc',
   '/home/luis/anaconda3/envs/hackspace/lib/tcl8.6/encoding/cp866.enc',
   'DATA'),
  ('tcl/encoding/jis0201.enc',
   '/home/luis/anaconda3/envs/hackspace/lib/tcl8.6/encoding/jis0201.enc',
   'DATA'),
  ('tcl/encoding/cp950.enc',
   '/home/luis/anaconda3/envs/hackspace/lib/tcl8.6/encoding/cp950.enc',
   'DATA'),
  ('tcl/encoding/jis0208.enc',
   '/home/luis/anaconda3/envs/hackspace/lib/tcl8.6/encoding/jis0208.enc',
   'DATA'),
  ('tcl/encoding/ebcdic.enc',
   '/home/luis/anaconda3/envs/hackspace/lib/tcl8.6/encoding/ebcdic.enc',
   'DATA'),
  ('tcl/encoding/big5.enc',
   '/home/luis/anaconda3/envs/hackspace/lib/tcl8.6/encoding/big5.enc',
   'DATA'),
  ('tcl/encoding/macThai.enc',
   '/home/luis/anaconda3/envs/hackspace/lib/tcl8.6/encoding/macThai.enc',
   'DATA'),
  ('tcl/encoding/cp737.enc',
   '/home/luis/anaconda3/envs/hackspace/lib/tcl8.6/encoding/cp737.enc',
   'DATA'),
  ('tcl/encoding/euc-jp.enc',
   '/home/luis/anaconda3/envs/hackspace/lib/tcl8.6/encoding/euc-jp.enc',
   'DATA'),
  ('tcl/encoding/iso8859-9.enc',
   '/home/luis/anaconda3/envs/hackspace/lib/tcl8.6/encoding/iso8859-9.enc',
   'DATA'),
  ('tcl/encoding/gb12345.enc',
   '/home/luis/anaconda3/envs/hackspace/lib/tcl8.6/encoding/gb12345.enc',
   'DATA'),
  ('tcl/encoding/gb1988.enc',
   '/home/luis/anaconda3/envs/hackspace/lib/tcl8.6/encoding/gb1988.enc',
   'DATA'),
  ('tcl/encoding/cp1253.enc',
   '/home/luis/anaconda3/envs/hackspace/lib/tcl8.6/encoding/cp1253.enc',
   'DATA'),
  ('tcl/encoding/cp1258.enc',
   '/home/luis/anaconda3/envs/hackspace/lib/tcl8.6/encoding/cp1258.enc',
   'DATA'),
  ('tcl/encoding/iso8859-1.enc',
   '/home/luis/anaconda3/envs/hackspace/lib/tcl8.6/encoding/iso8859-1.enc',
   'DATA'),
  ('tcl/encoding/cp857.enc',
   '/home/luis/anaconda3/envs/hackspace/lib/tcl8.6/encoding/cp857.enc',
   'DATA'),
  ('tcl/encoding/macDingbats.enc',
   '/home/luis/anaconda3/envs/hackspace/lib/tcl8.6/encoding/macDingbats.enc',
   'DATA'),
  ('tcl/encoding/cp869.enc',
   '/home/luis/anaconda3/envs/hackspace/lib/tcl8.6/encoding/cp869.enc',
   'DATA'),
  ('tcl/encoding/cp864.enc',
   '/home/luis/anaconda3/envs/hackspace/lib/tcl8.6/encoding/cp864.enc',
   'DATA'),
  ('tcl/encoding/jis0212.enc',
   '/home/luis/anaconda3/envs/hackspace/lib/tcl8.6/encoding/jis0212.enc',
   'DATA'),
  ('tcl/encoding/macCyrillic.enc',
   '/home/luis/anaconda3/envs/hackspace/lib/tcl8.6/encoding/macCyrillic.enc',
   'DATA'),
  ('tcl/encoding/cp863.enc',
   '/home/luis/anaconda3/envs/hackspace/lib/tcl8.6/encoding/cp863.enc',
   'DATA'),
  ('tcl/encoding/macJapan.enc',
   '/home/luis/anaconda3/envs/hackspace/lib/tcl8.6/encoding/macJapan.enc',
   'DATA'),
  ('tcl/encoding/cp855.enc',
   '/home/luis/anaconda3/envs/hackspace/lib/tcl8.6/encoding/cp855.enc',
   'DATA')])
